225.51
218
225.51
226.32
235
240
254.53
274.48
263.65
236.09
235.03
229.07
218.45
228.99
237.83
228.58
227.11
216.76
223.2
229
223.99
221.1
220.87
219.81
223.21
236.49
256.66
235.54
234.68
244.82
237.49
240.9
245.34
245.99
236.83
239.49
239.87
238.19
237.11
254.42
255.59
260.24
276.7
283.27
273.37
276.86
273.23
276.89
275.5
290.19
293.47
296.99
296.05
284
283.95
288
292.37
286.74
258.5
263.05
263.31
261.9
269.45
267.53
246.15
246.88
249.88
247.81
253.52
243.69
248.78
245.5
247.87
254.39
254.84
254.36
261.47
256.85
254.27
246.58
244.74
236.78
237.91
237.55
225.73
221.05
224.35
229.45
223.62
224.02
224.03
225.37
235.89
233.98
235.99
231.51
227.05
221.27
227.58
225.64
225.6
236.81
233.14
235.94
240.78
239.75
236.76
230
237.99
244.54
242.5
241.57
242.86
242.03
236.32
237.46
237.82
236.73
237.12
234.04
232.59
234.54
235.77
240.45
239.36
240.82
237.43
236.79
237.35
237.34
236.89
233.55
230.21
223.56
225.85
225.86
224.57
224.97
225.48
223.89
229.1
229.18
228.73
229.69
229.47
233.47
233.6
236.99
251.91
250.25
249.27
246.33
246.13
244.66
247.5
244.52
240.04
242.44
243
251.59
249.11
257.54
263.82
259.02
254.85
256.95
260.64
271.74
269.94
266.18
270.97
269.75
286.67
294.23
312.16
293.08
287.51
285.7
279.38
280.58
277.71
275.61
280
277.32
277.89
277.39
289.12
289.7
293.89
294.21
295.76
290.19
288.49
285.19
281.53
282.62
280.95
285.51
282.77
279.65
279.94
262.02
267.63
265.15
271.99
266.94
264.67
266.17
262.46
259.2
257.31
221.99
227.34
235.56
232.85
231.15
229.21
211.16
223.73
226.81
225.8
231.55
230.61
229.39
230.75
228.22
229.97
227.25
231.39
236.01
241.29
241.31
244.14
238.75
238.52
240.9
236.5
230.82
231.01
230.6
229.73
233.34
233.78
232.88
232.24
227.31
231.28
230.26
235.27
235.89
234.69
233.58
239.99
236.89
237.14
238.34
238.28
239.92
239.87
240.95
246.64
244
242.94
244.35
246.07
249.02
246.39
250.99
253.27
254.99
263.43
272.87
265
265.17
271.14
268.77
275.84
278.76
284.29
284.97
287.1
295.61
304.09
316.08
329.11
314.85
329.46
365.21
404.1
410
387.21
374.09
384.81
373.83
379.53
337.14
313.2
336.49
338.07
334.71
322.93
332.89
336.49
335.49
326.41
322.39
327
323.71
323
321
328.98
352.57
358.19
357.24
372.24
376.86
362.68
360
361.77
363.98
387.99
387.55
394.73
418.94
418.39
415.68
452.95
436.87
433.83
444.01
464.27
453.97
455.5
463.17
461.29
442.22
436.81
433.92
442.43
455.74
455.84
419.41
424.72
421.94
433.89
427.95
430.35
435.66
435.4
431.91
433.85
433.34
430.87
459.07
454.44
450.38
449.99
449.19
434.01
432.77
430.03
357.53
388.7
378.46
384.89
375.27
418.54
409.38
382.9
387.5
403.05
391.4
391.54
394.79
379.61
378.68
378.46
367.95
371.33
372.93
368.87
387.99
384.5
375.44
377.49
371.14
372.68
378.44
378.23
382.05
391
406.59
398.95
407.42
415.2
421.19
420.72
437.46
438.56
437.55
419.97
423.94
423.54
430.85
433.12
433.73
436.44
433.08
420.39
418.8
407.35
396.08
403.24
412.21
411.18
412.8
415.98
419.39
410.58
412.52
415.02
415.41
416.07
418.41
409.65
410.2
411.27
412
416.66
417.53
412.95
416.41
416.97
425.3
423
416.39
412.79
416.03
417.68
419.95
420.16
419.47
422.36
421.46
421.99
419.48
419.46
423.4
423.94
427.8
425.58
426.32
430.93
433.39
431
430.97
437.06
442.96
452.25
448.41
455.69
464.46
466.17
470.59
445.31
451.68
458.82
454.02
456.98
446.42
452.21
448.68
449.98
462.31
461.91
462.79
464.16
452.78
454.37
456.48
457.98
458.9
461.47
455.66
454.19
455.56
438.38
445.65
446.28
442.48
445.67
446.99
451.49
454.97
471.27
523.25
525.22
532.55
531.34
534.84
537.87
571.25
576.31
575.17
586.77
579.71
583.21
577.46
580.31
609.5
677.86
706.01
684.95
698.78
769.76
752.26
758.99
768.76
703.12
667.66
604.5
631.1
669.98
673.71
638.56
657.87
648.43
639.42
673.49
678.19
704.95
663.55
681.98
669.87
678.79
641.97
667.33
657.61
652.44
650.97
666.56
655.34
661.65
667.48
666.32
680
675.5
673.98
666.92
667.28
654.67
657.5
661
657.79
654.06
657.35
657.4
657
655.87
626.97
605.2
537.47
573.36
587.5
583
591.71
595.14
591.48
586.45
594.94
587.91
587.74
586.45
574.99
567.79
579.02
574.45
574.09
573.67
581.87
581.29
585.2
582.39
578.47
575.58
579.29
570.84
575.41
573.21
574.95
572.89
573.02
576.21
600.91
611.92
605.69
612.99
615.21
627.97
622.07
623.74
607.94
606.74
608.63
608.43
605.44
607.93
607.92
611.4
608.6
605.6
597
596.21
602.96
603.68
601.67
607.08
605.71
605.04
605.99
608.99
615.65
612.4
612.99
610.34
613.16
611.88
617.98
619.5
617.42
618.72
642.12
635.79
635.66
638.03
638.16
641.92
639.56
635.11
629.79
628.05
630.83
652.75
651.04
649.98
654.3
674
691.21
689.95
714.28
697.41
696.9
730.7
744.6
690
706.32
706.99
717.02
706.42
711.15
720.97
712.91
716.9
704.53
704.01
708.32
712.29
739.85
730.71
748.54
750.77
731.99
736.4
746.66
741.52
737.99
739.74
735.7
729.24
729.77
732.37
742.69
754
769.25
766.98
767.99
752
759.8
764.34
767.89
773.22
775.87
771.05
778.94
776.18
777.66
776.16
780.98
788.57
790.72
790.81
798.99
834.5
856.02
917.26
891.5
896.12
902.09
925.2
982.17
970.72
960.81
973.37
992.95
1011.45
1020.67
1130.3
1007
895.71
909
923.33
902.66
907
795.77
812.25
831.42
828
833.31
834.41
906
887.99
902.92
894.31
925.06
931.22
910.7
887
896
917.02
922.63
924.98
916.54
923.23
970.01
992.75
1008.38
1018
1035.54
1016.32
1022.58
1053.96
1056.7
994.24
1001.99
1018.65
1010
1002.82
1013.92
1014.53
1038.94
1057.3
1062.15
1059.88
1089.82
1128.29
1128.71
1186.9
1186.91
1158
1184.91
1195.81
1195.08
1230
1269.17
1292.86
1273.97
1278.98
1284.99
1237.36
1150.22
1197.3
1109.01
1188.11
1235.58
1245.49
1247.42
1263
1175.11
1069.57
970
1019.49
1044.96
1114.42
1034.57
1025.14
934.87
963.72
973.08
1042.08
1045.4
1043.27
1042.34
1088.99
1092
1113.99
1152.6
1143.99
1132.99
1192.3
1194
1184.5
1210.97
1210
1223.99
1214.17
1177.05
1173.74
1178.85
1177.99
1189.91
1201.94
1214.21
1236.15
1249.99
1247
1251.98
1257.29
1281.16
1298.44
1349.26
1353.34
1365.43
1384.55
1436.5
1471.99
1533
1563.39
1551.3
1585.39
1609.57
1713
1720.43
1794.99
1837.93
1695.61
1792.73
1799.99
1747.81
1777.48
1813.23
1899.16
1976.23
2058.91
2057
2123.29
2272.75
2432.97
2355
2272.7
2099.99
2232.78
2279.48
2191.58
2303.29
2419.99
2478.99
2548.05
2521.36
2698
2871.29
2685.64
2799.73
2811.39
2931.15
2998.98
2655.71
2709.01
2432.21
2409.98
2480.43
2634.94
2515.25
2596.98
2725.08
2643.35
2679.99
2690.76
2574.84
2505.61
2407.91
2575.75
2553.12
2530
2455.19
2423.63
2516.66
2542.41
2602
2616.96
2604.84
2501.15
2561.11
2508.99
2331.05
2310.01
2383.42
2340
2217.24
1964.31
1911.78
2235.19
2308.15
2258.99
2873.48
2657.45
2825.27
2754.28
2762.26
2564
2525.99
2664.99
2786.07
2700.21
2723.99
2856.88
2732.59
2699.9
2787.02
2857.34
3243.49
3222.22
3398.23
3422.43
3342.8
3444.98
3656.15
3874
4060.47
4320.6
4159.93
4370.01
4280.01
4101.72
4157.41
4050.99
4002
4092
4143.49
4312.03
4360
4344.32
4340.11
4384.99
4599
4581.98
4743.94
4947.99
4649.99
4626.05
4498.25
4432.51
4616.18
4624.18
4350
4334.36
4251.36
4210.72
4164.52
3855.32
3250.4
3740.02
3726.51
3719.97
4100
3910.11
3872.06
3617.47
3619.01
3787.33
3669.01
3919.78
3885.09
4200
4189.42
4156.99
4339
4394.81
4392.71
4307.99
4214.84
4320.04
4362.99
4425
4603.49
4769.55
4750
4814.99
5440
5624.8
5819.13
5693.7
5754.9
5594
5574.44
5704.01
5989.1
6024.86
6005.05
5905.99
5525.43
5739.97
5891.61
5780
5752.01
6140.01
6124.16
6445.01
6783.69
7039.98
7170.01
7412.55
7392
6969.76
7126.63
7467.96
7156
6577.62
6346.7
5886.35
6535.87
6605
7294
7838.53
7714.71
7777.01
8031.82
8256.01
8109
8250
8031.16
8215.01
8795.5
9401.11
9768.71
9949
9935.98
9903
10869.84
10930.24
11290
11643.98
11718.35
14090
17390.01
16367.03
15309.98
15290.01
16885.76
17730.12
16689.61
16749.78
17738.67
19650.01
19378.99
19039.01
17838.73
16496.89
15758.8
14210.57
15075.89
14221.94
14171.98
15790.88
15367.08
14450.01
14565.05
12839.99
13863.13
13480.01
14781.51
15098.14
15144.99
16960.01
17098.99
16174.22
14993.74
14480.99
14875.18
13308.06
13820
14187.95
13656.23
13590
11570.01
11200.01
11305.53
11498.99
12762.8
11518.17
10766.7
10824.94
11356.79
11118
11086.89
11319
11536
11123.01
9995
10099.99
9014.23
8787.52
9240
8167.91
6905.19
7688.46
7575.75
8218.1
8671.01
8547.49
8072.99
8872.28
8520.01
9472.98
10031.23
10167.49
11121.5
10380.04
11140
11235.57
10454.27
9830
10144.99
9688.62
9597.99
10300
10566.57
10307.27
10895.92
11000
11432.5
11469.9
11377.54
10700
9920
9304.9
9255
8795.44
9533.88
9120
9145.41
8207.03
8259.99
8275
7865.02
8192
8589
8900
8891.81
8715.09
8927.1
8531.34
8453
8145
7793.61
7942.72
7079.99
6848.01
6928.5
6816.01
7045.01
7424.9
6791.68
6785.85
6619.01
6894.01
7020.01
6771.13
6824.99
6942.99
7916
7893.19
8003.11
8355.25
8048.93
7892.1
8152.05
8274
8866.27
8915.42
8795.01
8931.3
9650
8865.98
9272.11
8922.55
9329.99
9389.01
9243.82
9072.29
9190.48
9725.74
9685
9800
9600
9356.25
9177.81
9300.08
9010.51
8403.33
8475
8686.1
8670
8477.46
8344
8059
8238.51
8235.6
8516.86
8393.44
7987.7
7505
7584.15
7459.11
7337.95
7346.64
7107.94
7460
7380.01
7485
7514.32
7636.42
7706.37
7487.37
7612.51
7655
7684.93
7618.83
7496.4
6770.31
6881
6544.99
6302.32
6638.49
6391.22
6484.29
6447.16
6709.02
6736.41
6756.1
6719.01
