0.07994
0.091218
0.068932
0.043394
0.0034476
-0.040548
-0.076272
-0.11554
-0.12977
-0.11163
-0.044345
0.017567
0.030708
0.064377
0.077348
0.052519
0.0092189
0.017702
0.01139
0.003475
-0.0054508
0.019203
0.055796
0.070373
0.07766
0.063121
0.037663
-0.00367
-0.04613
-0.086043
-0.1171
-0.15075
-0.17678
-0.15121
-0.08059
-0.011195
0.026614
0.070138
0.10506
0.07856
0.065039
0.088193
0.09453
0.042097
0.0063894
-0.023763
-0.020745
0.00051472
0.011552
0.0049271
-0.0014973
-0.010514
-0.037761
-0.053134
-0.038879
-0.027506
-0.059389
-0.069824
-0.0035636
0.027404
0.013876
-0.0013975
-0.016467
-0.029903
-0.020038
0.047323
0.060814
0.053694
0.0074461
-0.022178
-0.027389
0.02154
0.058921
0.080123
0.10009
0.057011
0.026819
0.010578
-0.0092219
-0.039611
-0.049015
-0.055118
-0.01403
0.0063041
0.021023
0.044506
0.041098
0.0021026
-0.025438
-0.055586
-0.0846
-0.091935
-0.095503
-0.038123
-0.018164
-0.010915
0.0014895
0.023477
-0.017343
0.043642
0.07095
0.065817
0.051425
0.0538
0.0053766
0.011539
0.081545
0.093601
0.089926
0.08315
0.055781
-0.0059246
-0.021876
-0.022421
-0.026906
-0.017154
0.0041324
0.014822
0.019769
0.02172
0.022651
0.010081
0.0019497
-0.0011669
-0.0063207
-0.023355
-0.03933
-0.044153
-0.053497
-0.042363
-0.0072639
0.0021319
0.0089907
0.020831
0.032713
0.0058857
0.024519
0.027884
0.028829
0.016781
0.018879
0.0047276
0.012348
0.0098561
0.0028499
-0.001785
-0.012984
-0.031286
-0.036031
-0.042911
-0.049086
-0.051407
-0.038823
-0.032137
-0.010438
-0.011594
-0.013493
-0.0040994
0.043513
0.042426
0.053248
0.087083
0.076823
0.031574
0.027366
0.032424
0.01205
0.010825
0.0091513
0.0036711
-0.00047217
-0.0033701
-0.0072443
-0.012901
-0.020555
-0.027015
-0.033178
-0.039166
-0.032071
-0.026943
-0.017599
-0.0029707
0.023056
0.029191
0.032938
0.03845
0.034632
0.018145
0.0086782
0.0061422
0.0021726
0.0014185
0.0042487
0.0058246
0.0069733
0.0027947
0.00085196
-0.003128
-0.0035413
-0.003686
-0.0038387
-0.0046769
-0.00022253
0.0021614
-0.0006233
-0.0035698
-0.0056597
-0.015569
-0.026137
-0.032231
-0.03477
-0.032052
-0.028006
-0.030587
-0.028583
-0.011725
-0.0008248
0.012067
0.018608
0.026028
0.027019
0.015817
0.010406
0.020043
0.017953
0.0063967
0.0098515
0.0095065
0.010996
0.017577
0.01867
0.016161
0.011407
0.005197
-0.00010106
0.007309
0.007346
0.0078165
0.0074959
0.0076248
-0.00040893
-4.0715e-05
0.00012188
0.00012023
-3.2844e-05
-0.00022851
-0.00044401
-0.00065955
-0.00085426
-0.00101
-0.0011168
-0.0011682
-0.00060142
0.00017591
0.0007048
0.00013279
-0.00085578
-0.0026721
-0.0048795
-0.0069314
-0.0078971
-0.0082781
-0.0063291
-0.0046061
0.0049254
0.01371
0.014126
0.010922
0.0055946
-0.010517
-0.029928
-0.046104
-0.067928
-0.095783
-0.12877
-0.14847
-0.16883
-0.17561
-0.1469
-0.11467
-0.1472
-0.12358
-0.11229
0.049607
0.15535
0.2534
0.30298
0.34304
0.18698
0.086744
0.050439
0.0091649
-0.020828
-0.03544
-0.049129
-0.065861
-0.083637
-0.084292
-0.042981
-0.056142
-0.0686
0.0027507
-0.0065946
-0.063335
-0.021403
-0.03154
-0.073552
-0.034367
-0.033221
-0.074067
-0.051798
-0.062669
-0.098463
-0.024382
-0.028276
0.070487
0.09375
0.068661
-0.014203
0.11071
0.026756
0.024226
0.048959
0.070306
0.043699
0.06717
0.055002
0.068232
0.06258
-0.028809
-0.069749
-0.056669
-0.055943
-0.052625
-0.045787
-0.041265
0.026567
0.042889
0.071498
0.10634
0.12604
0.019012
-0.017546
-0.059264
-0.11194
-0.1547
-0.16505
-0.16637
0.002235
0.045081
0.09326
0.13132
0.14451
-0.025854
0.017495
-0.010298
-0.039916
-0.069868
-0.059932
-0.064372
-0.062908
-0.023296
0.011478
0.012238
-0.050821
-0.067086
-0.11887
-0.11244
-0.15184
-0.1485
-0.16374
-0.078251
-0.028831
0.01662
0.010397
0.052223
0.021302
-0.028928
0.007099
0.04634
0.039705
-0.033211
-0.044793
-0.018141
0.0087592
0.024497
0.11884
0.25869
0.21205
0.14242
0.11398
0.075307
-0.056672
-0.070937
0.0053724
0.038525
0.05386
0.048227
0.062913
0.022977
0.030854
-0.017926
-0.036499
-0.056346
-0.10225
-0.16442
-0.1392
-0.11441
-0.11471
-0.085824
0.052995
0.18714
0.233
0.23416
0.23974
0.1634
0.042208
0.016444
0.032331
0.04376
0.033172
0.037872
0.023034
0.021422
-0.0057758
-0.027192
-0.058309
-0.083546
-0.10838
-0.12076
-0.1311
-0.027246
0.011033
0.043451
0.065028
0.096948
0.00081013
-0.052878
-0.091388
-0.10522
-0.1217
-0.081171
-0.011237
0.012287
0.044573
0.043741
0.01844
-0.021763
0.013923
-0.039111
-0.021222
-0.0034961
0.033843
0.031248
0.065001
0.053047
0.055365
0.052633
0.045678
0.061836
0.062385
0.021117
-0.01348
-0.023044
-0.057915
-0.07995
-0.087491
-0.097669
-0.12581
-0.098902
-0.071798
-0.023546
0.041034
0.035946
0.03251
0.096406
0.10914
0.065168
0.075895
0.068724
0.035474
0.029487
0.052647
0.068529
0.06659
0.017959
-0.032004
-0.093244
-0.13222
-0.17312
-0.19522
-0.16749
-0.11491
-0.071929
-0.012313
0.085342
0.098537
0.063708
0.064861
0.10094
0.030669
0.011011
0.021794
-0.0094802
-0.037811
0.022747
0.022739
0.022761
0.046988
0.010345
-0.033346
0.0054764
0.032868
0.063699
0.08574
0.08544
0.059672
0.053299
0.030539
0.011016
-0.012151
-0.052109
-0.077905
-0.065071
-0.053297
-0.035277
-0.03696
0.017889
0.013037
0.027995
0.032353
0.053829
0.0065824
-0.03612
-0.045084
-0.020413
0.0036086
-0.005818
0.027941
0.034168
0.017342
0.022786
0.045252
0.048906
0.033613
0.017144
-0.0010934
0.0024205
-0.006874
-0.0058728
-0.013891
0.015646
0.023219
0.027773
0.029409
0.038421
-0.011479
-0.053127
-0.069766
-0.057958
-0.052134
-0.020764
0.025946
0.049911
0.041919
0.056127
0.054817
0.022944
-0.0054881
-0.030916
-0.070246
-0.10351
-0.11445
-0.12174
-0.095869
-0.076922
-0.058021
-0.04001
0.01187
0.089398
0.14586
0.12739
0.11126
0.10839
0.051518
0.019136
0.09408
0.079959
